articleTitle,author,publishDate,articleURL
【狂人日記】牛市躺著的人比折騰的人更賺錢？2 月 3 日行情分析,數字貨幣趨勢狂人,2021-02-03,https://blockcast.it/2021/02/03/madman-column-price-analysis-2021-feb-03/
【狂人日記】屁股決定腦袋。2 月 2 日行情分析,數字貨幣趨勢狂人,2021-02-02,https://blockcast.it/2021/02/02/madman-column-price-analysis-2021-feb-02/
【狂人日記】穩住，就會重拾升勢！2 月 1 日行情分析,數字貨幣趨勢狂人,2021-02-01,https://blockcast.it/2021/02/01/madman-column-price-analysis-2021-feb-01/
WallStreetBets 鄉民還不死心？狗狗幣漲勢再起飆 85%,區塊妹 Mel,2021-02-01,https://blockcast.it/2021/02/01/dogecoin-rally-85-wall-street-bets-may-not-done-with-doge-yet/
【狂人日記】華爾街式比特幣 “定投”，是機構底嗎？1 月 31 日行情分析,數字貨幣趨勢狂人,2021-01-31,https://blockcast.it/2021/01/31/madman-column-price-analysis-2021-jan-31/
馬斯克出手比特幣瘋漲 20%！空軍慘賠 4.2 億美元,區塊妹 Mel,2021-01-29,https://blockcast.it/2021/01/29/elon-musk-bitcoin-pump-just-liquidated-420-million-of-shorts/
【狂人日記】韭菜狂歡進行時，怒髮衝冠上 5 萬！1 月 29 日行情分析,數字貨幣趨勢狂人,2021-01-29,https://blockcast.it/2021/01/29/madman-column-price-analysis-2021-jan-29/
GameStop 鄉民改炒「狗狗幣」！ DOGE 爆紅單日飆漲近 600%,區塊妹 Mel,2021-01-29,https://blockcast.it/2021/01/29/doge-prices-went-haywire-following-a-tweet-from-wsb-chairman/
【狂人日記】大佬們通通不看好比特幣了，意味著快要見底？1 月 28 日行情分析,數字貨幣趨勢狂人,2021-01-28,https://blockcast.it/2021/01/28/madman-column-price-analysis-2021-jan-28/
迷因神犬「狗狗幣」時代崛起！市值破 10 億美元創辦人也嚇傻,AAX,2021-01-13,https://blockcast.it/2021/01/13/aax-its-time-for-dogecoin/
【狂人日記】摩根大通變相持有和看多比特幣？1 月 9 日行情分析,數字貨幣趨勢狂人,2021-01-09,https://blockcast.it/2021/01/09/madman-column-price-analysis-2021-jan-9/
【狂人日記】插針式回調，不給踏空者任何上車機會。1 月 8 日行情分析,數字貨幣趨勢狂人,2021-01-08,https://blockcast.it/2021/01/08/madman-column-price-analysis-2021-jan-8/
最近爆火的狗狗幣還能幹嘛？三大交易所蹭熱推新玩法,區塊妹 Mel,2020-07-10,https://blockcast.it/2020/07/10/crypto-exchanges-binance-okex-and-bitfinex-are-expanding-their-support-for-dogecoin/
TikTok 掀人人買「狗狗幣」風潮！交易量破表幣價暴漲 50%,區塊妹 Mel,2020-07-08,https://blockcast.it/2020/07/08/dogecoin-surged-almost-50percent-due-to-a-viral-tiktok-challenge/
主流交易所槓桿交易誰家強？綜合對比幣安、中幣、火幣、OKEX,安菲,2020-02-19,https://blockcast.it/2020/02/19/who-is-the-best-crypto-margin-trading-exchange/
沒有交易深度，幣安將於 30 日下午 4 點移除 30 個交易對,安菲,2019-09-30,https://blockcast.it/2019/09/30/binance-notice-of-removal-of-30-trading-pairs/
【狂人日記】上漲趨勢仍未結束，分化後該如何選擇？4 月 5 日行情分析,數字貨幣趨勢狂人,2019-04-05,https://blockcast.it/2019/04/05/madman-column-price-analysis-2019-apr-5/
「V 神」持幣組合大公開  以太幣外還有些什麼？,YTG,2019-02-20,https://blockcast.it/2019/02/20/vitalik-buterin-on-reddit-ama-about-coi/
【狂人日記】到底應該入套兩年還是觀望兩年，10 月 27 日行情分析,數字貨幣趨勢狂人,2018-10-27,https://blockcast.it/2018/10/27/madman-column-price-analysis-october-27/
【狂人日記】大交易所變革之際，尋找屬於我們的機會。9 月 11 日行情分析,數字貨幣趨勢狂人,2018-09-11,https://blockcast.it/2018/09/11/madman-column-price-analysis-september-11/
ETH 與以太坊代幣錢包介紹（二）：手機錢包 Jaxx,Kevin Hoo,2017-06-03,https://blockcast.it/2017/06/03/eth-and-eth-token-wallet-series-jaxx/
錯過了 ETH 與 ETC？那你絕對不能錯過下一個潛力新星 EXP,OneAxelrod,2017-05-10,https://blockcast.it/2017/05/10/exp-the-next-potential-crypto-to-be-considered/
分析師預測：以太幣短期內有望破 100 美元,suki,2017-05-05,https://blockcast.it/2017/05/05/analysts-predict-100-price-for-eth/
