{
  "DISTRICT_CODE": 17,
  "LICNO": 2217000020,
  "R_Name": {
    "ZHHK": "長洲金冠大酒樓",
    "EN": "Golden Crown Restaurant"
  },
  "ADDRESS": {
    "ZHHK": "長洲東灣路2號東灣商業廣場4樓",
    "EN": "80 TUNG WAN ROAD, CHEUNG CHAU, NEW TERRITORIES"
  },
  "INFO": {},
  "EXPDATE": "2023-01-02",
  "GEODATA": {
    "WSG84": {
      "lat": 22.3423424,
      "lng": 114.82383
    },
    "EPSG2326": {
      "easting": 821075,
      "northing": 807770
    }
  }
}
